{
	"none": {
		"hint": "no flair equipped."
	},
	"gamedev": {
		"hint": "get a game you made posted on galaxy."
	},
	"donator": {
		"hint": "financially support yhvr on Patreon."
	},
	"contributor": {
		"hint": "make a contribution to galaxy's source code."
	},
	"counter": {
		"hint": "clicked at least once in the 2024 April Fools' Day event."
	},
	"countest": {
		"hint": "clicked at least 1,000 times in the 2024 April Fools' Day event."
	},
	"suggester": {
		"hint": "a game you suggested got on galaxy!",
		"hidden": true
	},
	"vip": {
		"hint": "[unused]",
		"hidden": true
	},
	"tester": {
		"hint": "you tested galaxy in its early days!",
		"hidden": true
	},
	"verifier": {
		"hint": "with great power comes great responsibility.",
		"hidden": true
	},
	"mod": {
		"hint": "with great power comes great responsibility.",
		"hidden": true
	},
	"admin": {
		"hint": "with great power comes great responsibility.",
		"hidden": true
	},
	"owner": {
		"hint": "yhvr!",
		"hidden": true
	}
}
